[
  [
    {
      "class": 7,
      "race": 1,
      "hp": 11,
      "name": "Tomer_Instogle",
      "respawnTime": 640,
      "x": 1062.880005,
      "y": 839,
      "z": 3.75,
      "gender": 0,
      "chance": 100,
      "level": 1,
      "id": 2030,
      "heading": 172,
      "size": 6,
      "version": 0,
      "texture": 4
    }
  ],
  [
    {
      "class": 2,
      "race": 1,
      "hp": 75,
      "name": "Lashun_Novashine",
      "respawnTime": 640,
      "x": 313.880005,
      "y": 243,
      "z": 17.75,
      "gender": 0,
      "chance": 100,
      "level": 5,
      "id": 2032,
      "heading": 127,
      "size": 6,
      "version": 0,
      "texture": 2
    }
  ],
  [
    {
      "class": 28,
      "race": 1,
      "hp": 20000,
      "name": "Renux_Herkanor",
      "respawnTime": 60,
      "x": 187,
      "y": 16,
      "z": -30.129999,
      "gender": 1,
      "chance": 100,
      "level": 61,
      "id": 2033,
      "heading": 205,
      "size": 6,
      "version": 0,
      "texture": 1
    }
  ],
  [
    {
      "class": 2,
      "race": 1,
      "hp": 31000,
      "name": "Priest_of_Discord",
      "respawnTime": 640,
      "x": 235,
      "y": 6,
      "z": 2.75,
      "gender": 0,
      "chance": 100,
      "level": 50,
      "id": 2034,
      "heading": 250,
      "size": 6,
      "version": 0,
      "texture": 11
    }
  ],
  [
    {
      "class": 3,
      "race": 1,
      "hp": 264,
      "name": "Grennet_Stormhand",
      "respawnTime": 640,
      "x": -163,
      "y": 439,
      "z": 3.75,
      "gender": 0,
      "chance": 100,
      "level": 12,
      "id": 2035,
      "heading": 129,
      "size": 6,
      "version": 0,
      "texture": 3
    }
  ],
  [
    {
      "class": 41,
      "race": 71,
      "hp": 375,
      "name": "Nerissa_Clothspinner",
      "respawnTime": 640,
      "x": 346.880005,
      "y": 83,
      "z": 3.8,
      "gender": 1,
      "chance": 100,
      "level": 15,
      "id": 2036,
      "heading": 0,
      "size": 6,
      "version": 0,
      "texture": 15
    }
  ],
  [
    {
      "class": 2,
      "race": 1,
      "hp": 264,
      "name": "Rolon_Banari",
      "respawnTime": 640,
      "x": -131,
      "y": 354,
      "z": 3.75,
      "gender": 0,
      "chance": 100,
      "level": 12,
      "id": 2037,
      "heading": 230.5,
      "size": 6,
      "version": 0,
      "texture": 3
    }
  ],
  [
    {
      "class": 1,
      "race": 71,
      "hp": 75,
      "name": "Hurrieta_Ironforge",
      "respawnTime": 640,
      "x": -92.879997,
      "y": 129.880005,
      "z": 2.75,
      "gender": 1,
      "chance": 100,
      "level": 5,
      "id": 2038,
      "heading": 0,
      "size": 6,
      "version": 0,
      "texture": 1
    }
  ],
  [
    {
      "class": 3,
      "race": 1,
      "hp": 1200,
      "name": "Enic_Ruklin",
      "respawnTime": 640,
      "x": -374.880005,
      "y": -34,
      "z": 4.75,
      "gender": 0,
      "chance": 100,
      "level": 30,
      "id": 2039,
      "heading": 64.375,
      "size": 6,
      "version": 0,
      "texture": 3
    }
  ],
  [
    {
      "class": 12,
      "race": 3,
      "hp": 299,
      "name": "Moodoro_Finharn",
      "respawnTime": 640,
      "x": 338,
      "y": 164.880005,
      "z": 2.75,
      "gender": 0,
      "chance": 100,
      "level": 13,
      "id": 2040,
      "heading": 0,
      "size": 6,
      "version": 0,
      "texture": 0
    }
  ],
  [
    {
      "class": 14,
      "race": 1,
      "hp": 1911,
      "name": "Rineval_Talyas",
      "respawnTime": 640,
      "x": -347,
      "y": 160,
      "z": 3.75,
      "gender": 1,
      "chance": 100,
      "level": 39,
      "id": 2041,
      "heading": 17.5,
      "size": 6,
      "version": 0,
      "texture": 16
    }
  ],
  [
    {
      "class": 22,
      "race": 1,
      "hp": 20000,
      "name": "Filian_Weagleross",
      "respawnTime": 640,
      "x": -679,
      "y": -109,
      "z": -10.13,
      "gender": 0,
      "chance": 100,
      "level": 61,
      "id": 2042,
      "heading": 1,
      "size": 6,
      "version": 0,
      "texture": 3
    }
  ],
  [
    {
      "class": 22,
      "race": 1,
      "hp": 20000,
      "name": "Davloran_Girionlis",
      "respawnTime": 640,
      "x": -425,
      "y": -228,
      "z": 23.75,
      "gender": 0,
      "chance": 100,
      "level": 61,
      "id": 2043,
      "heading": 35,
      "size": 6,
      "version": 0,
      "texture": 3
    }
  ],
  [
    {
      "class": 41,
      "race": 71,
      "hp": 2475,
      "name": "Balhallia",
      "respawnTime": 640,
      "x": -749,
      "y": -132,
      "z": -10.13,
      "gender": 1,
      "chance": 100,
      "level": 45,
      "id": 2044,
      "heading": 61,
      "size": 6,
      "version": 0,
      "texture": 1
    }
  ],
  [
    {
      "class": 41,
      "race": 71,
      "hp": 2475,
      "name": "Ladia_Qursii",
      "respawnTime": 640,
      "x": -240,
      "y": -228,
      "z": 3.75,
      "gender": 1,
      "chance": 100,
      "level": 45,
      "id": 2045,
      "heading": 18,
      "size": 6,
      "version": 0,
      "texture": 1
    }
  ],
  [
    {
      "class": 41,
      "race": 71,
      "hp": 2475,
      "name": "Enpero_Mesog",
      "respawnTime": 640,
      "x": -228,
      "y": -221,
      "z": 3.75,
      "gender": 0,
      "chance": 100,
      "level": 45,
      "id": 2046,
      "heading": 235,
      "size": 6,
      "version": 0,
      "texture": 0
    }
  ],
  [
    {
      "class": 41,
      "race": 71,
      "hp": 2475,
      "name": "Mellisa_Purgor",
      "respawnTime": 640,
      "x": -131,
      "y": -161,
      "z": 3.75,
      "gender": 1,
      "chance": 100,
      "level": 45,
      "id": 2047,
      "heading": 8,
      "size": 6,
      "version": 0,
      "texture": 1
    }
  ],
  [
    {
      "class": 41,
      "race": 71,
      "hp": 2475,
      "name": "Kragie_Rolana",
      "respawnTime": 640,
      "x": -125,
      "y": -144,
      "z": 3.75,
      "gender": 1,
      "chance": 100,
      "level": 45,
      "id": 2048,
      "heading": 255,
      "size": 6,
      "version": 0,
      "texture": 1
    }
  ],
  [
    {
      "class": 63,
      "race": 1,
      "hp": 28500,
      "name": "Gabrielle_Spirit",
      "respawnTime": 640,
      "x": -227,
      "y": -205,
      "z": 3.75,
      "gender": 1,
      "chance": 100,
      "level": 65,
      "id": 2049,
      "heading": 192,
      "size": 6,
      "version": 0,
      "texture": 3
    }
  ],
  [
    {
      "class": 1,
      "race": 1,
      "hp": 2000,
      "name": "Gibson_Galliway",
      "respawnTime": 640,
      "x": 270,
      "y": 143,
      "z": 3.75,
      "gender": 0,
      "chance": 100,
      "level": 40,
      "id": 2050,
      "heading": 159.625,
      "size": 6,
      "version": 0,
      "texture": 0
    }
  ],
  [
    {
      "class": 3,
      "race": 1,
      "hp": 19000,
      "name": "Vegalys_Keldrane",
      "respawnTime": 640,
      "x": 200,
      "y": 310,
      "z": 47.630001,
      "gender": 0,
      "chance": 100,
      "level": 60,
      "id": 2051,
      "heading": 163.5,
      "size": 6,
      "version": 0,
      "texture": 3
    }
  ],
  [
    {
      "class": 2,
      "race": 1,
      "hp": 8750,
      "name": "Velarte_Selire",
      "respawnTime": 640,
      "x": -270,
      "y": -231.880005,
      "z": 3.75,
      "gender": 0,
      "chance": 100,
      "level": 50,
      "id": 2052,
      "heading": 5.5,
      "size": 6,
      "version": 0,
      "texture": 2
    }
  ],
  [
    {
      "class": 3,
      "race": 1,
      "hp": 20000,
      "name": "Jaylia_the_Faithful",
      "respawnTime": 640,
      "x": 416.880005,
      "y": 106.25,
      "z": 2.75,
      "gender": 1,
      "chance": 100,
      "level": 61,
      "id": 2053,
      "heading": 193.5,
      "size": 6,
      "version": 0,
      "texture": 3
    }
  ],
  [
    {
      "class": 41,
      "race": 71,
      "hp": 1496,
      "name": "Henlom_Visrek",
      "respawnTime": 640,
      "x": -121,
      "y": -137,
      "z": 3.75,
      "gender": 0,
      "chance": 100,
      "level": 34,
      "id": 2054,
      "heading": 225.5,
      "size": 6,
      "version": 0,
      "texture": 0
    }
  ],
  [
    {
      "class": 1,
      "race": 39,
      "hp": 11,
      "name": "a_gnoll_pup",
      "respawnTime": 640,
      "x": -854,
      "y": 1117.880005,
      "z": 3.13,
      "gender": 2,
      "chance": 50,
      "level": 1,
      "id": 2002,
      "heading": 0,
      "size": 4.5,
      "version": 0,
      "texture": 2
    },
    {
      "class": 9,
      "race": 6,
      "hp": 264,
      "name": "Jracol_Brestiage",
      "respawnTime": 640,
      "x": -854,
      "y": 1117.880005,
      "z": 3.13,
      "gender": 0,
      "chance": 50,
      "level": 12,
      "id": 2029,
      "heading": 0,
      "size": 5,
      "version": 0,
      "texture": 1
    }
  ],
  [
    {
      "class": 1,
      "race": 22,
      "hp": 39,
      "name": "a_klicnik_worker",
      "respawnTime": 640,
      "x": -666.880005,
      "y": 1248.880005,
      "z": 1.9,
      "gender": 2,
      "chance": 100,
      "level": 3,
      "id": 2022,
      "heading": 151.5,
      "size": 3,
      "version": 0,
      "texture": 1
    },
    {
      "class": 1,
      "race": 22,
      "hp": 39,
      "name": "a_klicnik_worker",
      "respawnTime": 640,
      "x": 741.880005,
      "y": 999,
      "z": 1.9,
      "gender": 2,
      "chance": 100,
      "level": 3,
      "id": 2022,
      "heading": 175.25,
      "size": 3,
      "version": 0,
      "texture": 1
    },
    {
      "class": 1,
      "race": 22,
      "hp": 39,
      "name": "a_klicnik_worker",
      "respawnTime": 640,
      "x": 484.880005,
      "y": 726,
      "z": 1.9,
      "gender": 2,
      "chance": 100,
      "level": 3,
      "id": 2022,
      "heading": 141.5,
      "size": 3,
      "version": 0,
      "texture": 1
    },
    {
      "class": 1,
      "race": 22,
      "hp": 39,
      "name": "a_klicnik_worker",
      "respawnTime": 640,
      "x": -807.880005,
      "y": 977,
      "z": 1.9,
      "gender": 2,
      "chance": 100,
      "level": 3,
      "id": 2022,
      "heading": 87.5,
      "size": 3,
      "version": 0,
      "texture": 1
    },
    {
      "class": 1,
      "race": 22,
      "hp": 39,
      "name": "a_klicnik_worker",
      "respawnTime": 640,
      "x": 651.880005,
      "y": 923,
      "z": 1.9,
      "gender": 2,
      "chance": 100,
      "level": 3,
      "id": 2022,
      "heading": 128.5,
      "size": 3,
      "version": 0,
      "texture": 1
    },
    {
      "class": 1,
      "race": 22,
      "hp": 39,
      "name": "a_klicnik_worker",
      "respawnTime": 640,
      "x": -942.880005,
      "y": 1133,
      "z": 1.9,
      "gender": 2,
      "chance": 100,
      "level": 3,
      "id": 2022,
      "heading": 115.75,
      "size": 3,
      "version": 0,
      "texture": 1
    }
  ],
  [
    {
      "class": 1,
      "race": 22,
      "hp": 96,
      "name": "a_klicnik_warrior",
      "respawnTime": 640,
      "x": 236.880005,
      "y": 766,
      "z": 1.9,
      "gender": 2,
      "chance": 100,
      "level": 6,
      "id": 2023,
      "heading": 161.5,
      "size": 3,
      "version": 0,
      "texture": 1
    }
  ],
  [
    {
      "class": 1,
      "race": 22,
      "hp": 24,
      "name": "a_fire_beetle",
      "respawnTime": 640,
      "x": -680.880005,
      "y": 1058.880005,
      "z": 1.88,
      "gender": 2,
      "chance": 100,
      "level": 2,
      "id": 2024,
      "heading": 203.125,
      "size": 3,
      "version": 0,
      "texture": 1
    },
    {
      "class": 1,
      "race": 22,
      "hp": 24,
      "name": "a_fire_beetle",
      "respawnTime": 640,
      "x": -49.880001,
      "y": 998.880005,
      "z": 1.9,
      "gender": 2,
      "chance": 100,
      "level": 2,
      "id": 2024,
      "heading": 192.5,
      "size": 3,
      "version": 0,
      "texture": 1
    },
    {
      "class": 1,
      "race": 22,
      "hp": 24,
      "name": "a_fire_beetle",
      "respawnTime": 640,
      "x": 383.880005,
      "y": 912,
      "z": 1.9,
      "gender": 2,
      "chance": 100,
      "level": 2,
      "id": 2024,
      "heading": 150,
      "size": 3,
      "version": 0,
      "texture": 1
    },
    {
      "class": 1,
      "race": 22,
      "hp": 24,
      "name": "a_fire_beetle",
      "respawnTime": 640,
      "x": 1083.880005,
      "y": 979.880005,
      "z": 1.9,
      "gender": 2,
      "chance": 100,
      "level": 2,
      "id": 2024,
      "heading": 117.5,
      "size": 3,
      "version": 0,
      "texture": 1
    },
    {
      "class": 1,
      "race": 22,
      "hp": 24,
      "name": "a_fire_beetle",
      "respawnTime": 640,
      "x": -456,
      "y": 706,
      "z": 9,
      "gender": 2,
      "chance": 100,
      "level": 2,
      "id": 2024,
      "heading": 0,
      "size": 3,
      "version": 0,
      "texture": 1
    }
  ],
  [
    {
      "class": 1,
      "race": 34,
      "hp": 56,
      "name": "a_whiskered_bat",
      "respawnTime": 640,
      "x": 196,
      "y": 700,
      "z": 1.9,
      "gender": 2,
      "chance": 100,
      "level": 4,
      "id": 2028,
      "heading": 109.25,
      "size": 3,
      "version": 0,
      "texture": 0
    }
  ],
  [
    {
      "class": 8,
      "race": 1,
      "hp": 651,
      "name": "Quinon_Hulleaf",
      "respawnTime": 640,
      "x": 127,
      "y": 304,
      "z": 47.630001,
      "gender": 0,
      "chance": 50,
      "level": 21,
      "id": 2027,
      "heading": 255,
      "size": 6,
      "version": 0,
      "texture": 0
    },
    {
      "class": 8,
      "race": 1,
      "hp": 336,
      "name": "Leanon_Ruksey",
      "respawnTime": 640,
      "x": 127,
      "y": 304,
      "z": 47.630001,
      "gender": 0,
      "chance": 50,
      "level": 14,
      "id": 2123,
      "heading": 255,
      "size": 6,
      "version": 0,
      "texture": 0
    }
  ],
  [
    {
      "class": 1,
      "race": 37,
      "hp": 11,
      "name": "a_grass_snake",
      "respawnTime": 640,
      "x": 1031.880005,
      "y": 1290.880005,
      "z": 1.9,
      "gender": 2,
      "chance": 100,
      "level": 1,
      "id": 2003,
      "heading": 117.5,
      "size": 3,
      "version": 0,
      "texture": 1
    },
    {
      "class": 1,
      "race": 37,
      "hp": 11,
      "name": "a_grass_snake",
      "respawnTime": 640,
      "x": 685.880005,
      "y": 953.880005,
      "z": 1.9,
      "gender": 2,
      "chance": 100,
      "level": 1,
      "id": 2003,
      "heading": 116.75,
      "size": 3,
      "version": 0,
      "texture": 1
    },
    {
      "class": 1,
      "race": 37,
      "hp": 11,
      "name": "a_grass_snake",
      "respawnTime": 640,
      "x": -470.880005,
      "y": 868.880005,
      "z": 1.9,
      "gender": 2,
      "chance": 100,
      "level": 1,
      "id": 2003,
      "heading": 0,
      "size": 3,
      "version": 0,
      "texture": 1
    },
    {
      "class": 1,
      "race": 37,
      "hp": 11,
      "name": "a_grass_snake",
      "respawnTime": 640,
      "x": -561.880005,
      "y": 964.880005,
      "z": 1.88,
      "gender": 2,
      "chance": 100,
      "level": 1,
      "id": 2003,
      "heading": 194,
      "size": 3,
      "version": 0,
      "texture": 1
    },
    {
      "class": 1,
      "race": 37,
      "hp": 11,
      "name": "a_grass_snake",
      "respawnTime": 640,
      "x": -338.880005,
      "y": 848,
      "z": 1.88,
      "gender": 2,
      "chance": 100,
      "level": 1,
      "id": 2003,
      "heading": 188.375,
      "size": 3,
      "version": 0,
      "texture": 1
    },
    {
      "class": 1,
      "race": 37,
      "hp": 11,
      "name": "a_grass_snake",
      "respawnTime": 640,
      "x": -80.879997,
      "y": 1283.880005,
      "z": 1.88,
      "gender": 2,
      "chance": 100,
      "level": 1,
      "id": 2003,
      "heading": 250.875,
      "size": 3,
      "version": 0,
      "texture": 1
    },
    {
      "class": 1,
      "race": 37,
      "hp": 11,
      "name": "a_grass_snake",
      "respawnTime": 640,
      "x": 251,
      "y": 1225.880005,
      "z": 1.88,
      "gender": 2,
      "chance": 100,
      "level": 1,
      "id": 2003,
      "heading": 201.125,
      "size": 3,
      "version": 0,
      "texture": 1
    },
    {
      "class": 1,
      "race": 37,
      "hp": 11,
      "name": "a_grass_snake",
      "respawnTime": 640,
      "x": 530.880005,
      "y": 1026,
      "z": 1.9,
      "gender": 2,
      "chance": 100,
      "level": 1,
      "id": 2003,
      "heading": 135.5,
      "size": 3,
      "version": 0,
      "texture": 1
    },
    {
      "class": 1,
      "race": 37,
      "hp": 11,
      "name": "a_grass_snake",
      "respawnTime": 640,
      "x": -1022.880005,
      "y": 863.880005,
      "z": 1.9,
      "gender": 2,
      "chance": 100,
      "level": 1,
      "id": 2003,
      "heading": 129.25,
      "size": 3,
      "version": 0,
      "texture": 1
    },
    {
      "class": 1,
      "race": 37,
      "hp": 11,
      "name": "a_grass_snake",
      "respawnTime": 640,
      "x": 160.880005,
      "y": 1216.880005,
      "z": 1.9,
      "gender": 2,
      "chance": 100,
      "level": 1,
      "id": 2003,
      "heading": 109.5,
      "size": 3,
      "version": 0,
      "texture": 1
    },
    {
      "class": 1,
      "race": 37,
      "hp": 11,
      "name": "a_grass_snake",
      "respawnTime": 640,
      "x": -373.880005,
      "y": 1001,
      "z": 1.9,
      "gender": 2,
      "chance": 100,
      "level": 1,
      "id": 2003,
      "heading": 115.5,
      "size": 3,
      "version": 0,
      "texture": 1
    },
    {
      "class": 1,
      "race": 37,
      "hp": 11,
      "name": "a_grass_snake",
      "respawnTime": 640,
      "x": 667.880005,
      "y": 743,
      "z": 1.9,
      "gender": 2,
      "chance": 100,
      "level": 1,
      "id": 2003,
      "heading": 247.25,
      "size": 3,
      "version": 0,
      "texture": 1
    }
  ],
  [
    {
      "class": 1,
      "race": 22,
      "hp": 24,
      "name": "a_klicnik_worker",
      "respawnTime": 640,
      "x": 20.879999,
      "y": 1089.880005,
      "z": 1.88,
      "gender": 2,
      "chance": 100,
      "level": 2,
      "id": 2014,
      "heading": 0,
      "size": 3,
      "version": 0,
      "texture": 1
    }
  ],
  [
    {
      "class": 1,
      "race": 22,
      "hp": 56,
      "name": "a_klicnik_worker",
      "respawnTime": 640,
      "x": 406,
      "y": 935.880005,
      "z": 1.9,
      "gender": 2,
      "chance": 100,
      "level": 4,
      "id": 2025,
      "heading": 199.75,
      "size": 3,
      "version": 0,
      "texture": 1
    },
    {
      "class": 1,
      "race": 22,
      "hp": 56,
      "name": "a_klicnik_worker",
      "respawnTime": 640,
      "x": 106,
      "y": 1291.880005,
      "z": 1.9,
      "gender": 2,
      "chance": 100,
      "level": 4,
      "id": 2025,
      "heading": 141.25,
      "size": 3,
      "version": 0,
      "texture": 1
    },
    {
      "class": 1,
      "race": 22,
      "hp": 56,
      "name": "a_klicnik_worker",
      "respawnTime": 640,
      "x": -518.880005,
      "y": 1131.880005,
      "z": 1.9,
      "gender": 2,
      "chance": 100,
      "level": 4,
      "id": 2025,
      "heading": 170.25,
      "size": 3,
      "version": 0,
      "texture": 1
    }
  ],
  [
    {
      "class": 22,
      "race": 1,
      "hp": 20000,
      "name": "Suuspa_Clanim",
      "respawnTime": 640,
      "x": -629,
      "y": -180,
      "z": -11.13,
      "gender": 1,
      "chance": 100,
      "level": 61,
      "id": 2058,
      "heading": 226,
      "size": 6,
      "version": 0,
      "texture": 3
    }
  ],
  [
    {
      "class": 41,
      "race": 71,
      "hp": 1824,
      "name": "Berane_Constarg",
      "respawnTime": 640,
      "x": -161,
      "y": -161,
      "z": 3.75,
      "gender": 0,
      "chance": 100,
      "level": 38,
      "id": 2055,
      "heading": 0,
      "size": 6,
      "version": 0,
      "texture": 0
    }
  ],
  [
    {
      "class": 28,
      "race": 1,
      "hp": 20000,
      "name": "Reldin_Harkolis",
      "respawnTime": 640,
      "x": 206,
      "y": 140,
      "z": -29.129999,
      "gender": 0,
      "chance": 100,
      "level": 61,
      "id": 2056,
      "heading": 210,
      "size": 6,
      "version": 0,
      "texture": 1
    }
  ],
  [
    {
      "class": 1,
      "race": 71,
      "hp": 1131,
      "name": "Brohan_Ironforge",
      "respawnTime": 640,
      "x": -4,
      "y": 107,
      "z": 19.75,
      "gender": 0,
      "chance": 100,
      "level": 29,
      "id": 2057,
      "heading": 168.5,
      "size": 6,
      "version": 0,
      "texture": 0
    }
  ],
  [
    {
      "class": 22,
      "race": 1,
      "hp": 20000,
      "name": "Roesager_Thusten",
      "respawnTime": 640,
      "x": -116,
      "y": -128,
      "z": 3.75,
      "gender": 0,
      "chance": 100,
      "level": 61,
      "id": 2059,
      "heading": 197.5,
      "size": 6,
      "version": 0,
      "texture": 2
    }
  ],
  [
    {
      "class": 8,
      "race": 7,
      "hp": 13750,
      "name": "Felodius_Sworddancer",
      "respawnTime": 640,
      "x": -255.880005,
      "y": -106,
      "z": 2.38,
      "gender": 0,
      "chance": 100,
      "level": 55,
      "id": 2060,
      "heading": 100,
      "size": 5.5,
      "version": 0,
      "texture": 2
    }
  ],
  [
    {
      "class": 1,
      "race": 1,
      "hp": 600,
      "name": "Nax_Ghruna",
      "respawnTime": 640,
      "x": 267.25,
      "y": 76.75,
      "z": -16.129999,
      "gender": 0,
      "chance": 100,
      "level": 20,
      "id": 2061,
      "heading": 255.25,
      "size": 6,
      "version": 0,
      "texture": 0
    }
  ],
  [
    {
      "class": 41,
      "race": 71,
      "hp": 336,
      "name": "Tubal_Weaver",
      "respawnTime": 640,
      "x": 94,
      "y": 216.880005,
      "z": 3.75,
      "gender": 0,
      "chance": 100,
      "level": 14,
      "id": 2062,
      "heading": 22.5,
      "size": 6,
      "version": 0,
      "texture": 0
    }
  ],
  [
    {
      "class": 41,
      "race": 71,
      "hp": 6500,
      "name": "Crow",
      "respawnTime": 640,
      "x": 358,
      "y": 91,
      "z": 3.75,
      "gender": 0,
      "chance": 100,
      "level": 47,
      "id": 2063,
      "heading": 181,
      "size": 6,
      "version": 0,
      "texture": 0
    }
  ],
  [
    {
      "class": 41,
      "race": 71,
      "hp": 2475,
      "name": "Rodgar_the_Tall",
      "respawnTime": 640,
      "x": -7,
      "y": -89,
      "z": 17.75,
      "gender": 0,
      "chance": 100,
      "level": 45,
      "id": 2064,
      "heading": 2.5,
      "size": 6,
      "version": 0,
      "texture": 0
    }
  ],
  [
    {
      "class": 41,
      "race": 71,
      "hp": 2475,
      "name": "Gerault_Takenmaul",
      "respawnTime": 640,
      "x": 19,
      "y": -64,
      "z": 3.75,
      "gender": 0,
      "chance": 100,
      "level": 45,
      "id": 2065,
      "heading": 173.5,
      "size": 6,
      "version": 0,
      "texture": 0
    }
  ],
  [
    {
      "class": 41,
      "race": 71,
      "hp": 2475,
      "name": "Tanlyn_Galliway",
      "respawnTime": 640,
      "x": 204,
      "y": 125,
      "z": 3.75,
      "gender": 1,
      "chance": 100,
      "level": 45,
      "id": 2066,
      "heading": 95,
      "size": 6,
      "version": 0,
      "texture": 0
    }
  ],
  [
    {
      "class": 41,
      "race": 71,
      "hp": 2475,
      "name": "Sneed_Galliway",
      "respawnTime": 640,
      "x": 243,
      "y": 132,
      "z": 3.75,
      "gender": 0,
      "chance": 100,
      "level": 45,
      "id": 2067,
      "heading": 132,
      "size": 6,
      "version": 0,
      "texture": 0
    }
  ],
  [
    {
      "class": 41,
      "race": 71,
      "hp": 504,
      "name": "Svena_Ironforge",
      "respawnTime": 640,
      "x": 34,
      "y": 60,
      "z": 3.75,
      "gender": 1,
      "chance": 100,
      "level": 18,
      "id": 2068,
      "heading": 127,
      "size": 6,
      "version": 0,
      "texture": 1
    }
  ],
  [
    {
      "class": 41,
      "race": 71,
      "hp": 119,
      "name": "Ziska_Ironforge",
      "respawnTime": 640,
      "x": 60,
      "y": 53.75,
      "z": 3.75,
      "gender": 1,
      "chance": 100,
      "level": 7,
      "id": 2069,
      "heading": 2.75,
      "size": 6,
      "version": 0,
      "texture": 1
    }
  ],
  [
    {
      "class": 41,
      "race": 71,
      "hp": 231,
      "name": "Dren_Ironforge",
      "respawnTime": 640,
      "x": 50,
      "y": 20,
      "z": 3.75,
      "gender": 0,
      "chance": 100,
      "level": 11,
      "id": 2070,
      "heading": 55,
      "size": 6,
      "version": 0,
      "texture": 0
    }
  ],
  [
    {
      "class": 41,
      "race": 71,
      "hp": 875,
      "name": "Rendallen_Ironforge",
      "respawnTime": 640,
      "x": 86,
      "y": 50,
      "z": 3.75,
      "gender": 0,
      "chance": 100,
      "level": 25,
      "id": 2071,
      "heading": 136,
      "size": 6,
      "version": 0,
      "texture": 0
    }
  ],
  [
    {
      "class": 28,
      "race": 1,
      "hp": 20000,
      "name": "Knargon_Lanenda",
      "respawnTime": 640,
      "x": 185,
      "y": 72.879997,
      "z": -29.129999,
      "gender": 0,
      "chance": 100,
      "level": 61,
      "id": 2072,
      "heading": 175,
      "size": 6,
      "version": 0,
      "texture": 0
    }
  ],
  [
    {
      "class": 41,
      "race": 71,
      "hp": 759,
      "name": "Pelshia_Thuxpire",
      "respawnTime": 640,
      "x": 160,
      "y": 69,
      "z": -29.129999,
      "gender": 1,
      "chance": 100,
      "level": 23,
      "id": 2073,
      "heading": 63,
      "size": 6,
      "version": 0,
      "texture": 0
    }
  ],
  [
    {
      "class": 28,
      "race": 1,
      "hp": 20000,
      "name": "Hanns_Krieghor",
      "respawnTime": 640,
      "x": 149,
      "y": 31,
      "z": -27.125,
      "gender": 0,
      "chance": 100,
      "level": 61,
      "id": 2074,
      "heading": 63,
      "size": 6,
      "version": 0,
      "texture": 1
    }
  ],
  [
    {
      "class": 26,
      "race": 1,
      "hp": 20000,
      "name": "Phin_Esrinap",
      "respawnTime": 640,
      "x": 329.880005,
      "y": 300,
      "z": 17.75,
      "gender": 0,
      "chance": 100,
      "level": 61,
      "id": 2075,
      "heading": 200,
      "size": 6,
      "version": 0,
      "texture": 0
    }
  ],
  [
    {
      "class": 41,
      "race": 71,
      "hp": 999,
      "name": "Shenro_Kazpur",
      "respawnTime": 640,
      "x": 302,
      "y": 257,
      "z": 17.75,
      "gender": 0,
      "chance": 100,
      "level": 27,
      "id": 2076,
      "heading": 245,
      "size": 6,
      "version": 0,
      "texture": 0
    }
  ],
  [
    {
      "class": 26,
      "race": 1,
      "hp": 20000,
      "name": "LuSun",
      "respawnTime": 640,
      "x": 301,
      "y": 342,
      "z": 3.75,
      "gender": 0,
      "chance": 100,
      "level": 61,
      "id": 2077,
      "heading": 172,
      "size": 6,
      "version": 0,
      "texture": 0
    }
  ],
  [
    {
      "class": 1,
      "race": 22,
      "hp": 24,
      "name": "a_klicnik_drone",
      "respawnTime": 640,
      "x": 669.880005,
      "y": 794,
      "z": 1.88,
      "gender": 2,
      "chance": 100,
      "level": 2,
      "id": 2021,
      "heading": 67.25,
      "size": 3,
      "version": 0,
      "texture": 1
    },
    {
      "class": 1,
      "race": 22,
      "hp": 24,
      "name": "a_klicnik_drone",
      "respawnTime": 640,
      "x": -712.880005,
      "y": 1111.880005,
      "z": 1.9,
      "gender": 2,
      "chance": 100,
      "level": 2,
      "id": 2021,
      "heading": 196.75,
      "size": 3,
      "version": 0,
      "texture": 1
    },
    {
      "class": 1,
      "race": 22,
      "hp": 24,
      "name": "a_klicnik_drone",
      "respawnTime": 640,
      "x": -448.880005,
      "y": 1241.880005,
      "z": 1.9,
      "gender": 2,
      "chance": 100,
      "level": 2,
      "id": 2021,
      "heading": 153.75,
      "size": 3,
      "version": 0,
      "texture": 1
    },
    {
      "class": 1,
      "race": 22,
      "hp": 24,
      "name": "a_klicnik_drone",
      "respawnTime": 640,
      "x": -213,
      "y": 1199.880005,
      "z": 1.9,
      "gender": 2,
      "chance": 100,
      "level": 2,
      "id": 2021,
      "heading": 0,
      "size": 3,
      "version": 0,
      "texture": 1
    },
    {
      "class": 1,
      "race": 22,
      "hp": 24,
      "name": "a_klicnik_drone",
      "respawnTime": 640,
      "x": 378,
      "y": 1113,
      "z": 9,
      "gender": 2,
      "chance": 100,
      "level": 2,
      "id": 2021,
      "heading": 0,
      "size": 3,
      "version": 0,
      "texture": 1
    }
  ],
  [
    {
      "class": 1,
      "race": 34,
      "hp": 11,
      "name": "a_brown_myotis_bat",
      "respawnTime": 640,
      "x": -80,
      "y": 1040,
      "z": 1.88,
      "gender": 2,
      "chance": 100,
      "level": 1,
      "id": 2017,
      "heading": 117.125,
      "size": 3,
      "version": 0,
      "texture": 0
    },
    {
      "class": 1,
      "race": 34,
      "hp": 11,
      "name": "a_brown_myotis_bat",
      "respawnTime": 640,
      "x": 559,
      "y": 1067,
      "z": 1.9,
      "gender": 2,
      "chance": 100,
      "level": 1,
      "id": 2017,
      "heading": 90.25,
      "size": 3,
      "version": 0,
      "texture": 0
    },
    {
      "class": 1,
      "race": 34,
      "hp": 11,
      "name": "a_brown_myotis_bat",
      "respawnTime": 640,
      "x": -464.880005,
      "y": 943,
      "z": 1.88,
      "gender": 2,
      "chance": 100,
      "level": 1,
      "id": 2017,
      "heading": 191.625,
      "size": 3,
      "version": 0,
      "texture": 0
    },
    {
      "class": 1,
      "race": 34,
      "hp": 11,
      "name": "a_brown_myotis_bat",
      "respawnTime": 640,
      "x": 763.880005,
      "y": 970.880005,
      "z": 1.9,
      "gender": 2,
      "chance": 100,
      "level": 1,
      "id": 2017,
      "heading": 121,
      "size": 3,
      "version": 0,
      "texture": 0
    },
    {
      "class": 1,
      "race": 34,
      "hp": 11,
      "name": "a_brown_myotis_bat",
      "respawnTime": 640,
      "x": -638.880005,
      "y": 854.880005,
      "z": 1.9,
      "gender": 2,
      "chance": 100,
      "level": 1,
      "id": 2017,
      "heading": 134.25,
      "size": 3,
      "version": 0,
      "texture": 0
    },
    {
      "class": 1,
      "race": 34,
      "hp": 11,
      "name": "a_brown_myotis_bat",
      "respawnTime": 640,
      "x": 96.879997,
      "y": 862,
      "z": 1.9,
      "gender": 2,
      "chance": 100,
      "level": 1,
      "id": 2017,
      "heading": 178.25,
      "size": 3,
      "version": 0,
      "texture": 0
    },
    {
      "class": 1,
      "race": 34,
      "hp": 11,
      "name": "a_brown_myotis_bat",
      "respawnTime": 640,
      "x": -400.880005,
      "y": 1096,
      "z": 1.9,
      "gender": 2,
      "chance": 100,
      "level": 1,
      "id": 2017,
      "heading": 126.25,
      "size": 3,
      "version": 0,
      "texture": 0
    },
    {
      "class": 1,
      "race": 34,
      "hp": 11,
      "name": "a_brown_myotis_bat",
      "respawnTime": 640,
      "x": 729,
      "y": 846,
      "z": 9,
      "gender": 2,
      "chance": 100,
      "level": 1,
      "id": 2017,
      "heading": 0,
      "size": 3,
      "version": 0,
      "texture": 0
    },
    {
      "class": 1,
      "race": 34,
      "hp": 11,
      "name": "a_brown_myotis_bat",
      "respawnTime": 640,
      "x": 217.880005,
      "y": 1229,
      "z": 1.9,
      "gender": 2,
      "chance": 100,
      "level": 1,
      "id": 2017,
      "heading": 125,
      "size": 3,
      "version": 0,
      "texture": 0
    }
  ],
  [
    {
      "class": 5,
      "race": 71,
      "hp": 8750,
      "name": "Lieutenant_Dagarok",
      "respawnTime": 640,
      "x": 245,
      "y": 164,
      "z": 2.75,
      "gender": 0,
      "chance": 50,
      "level": 50,
      "id": 2020,
      "heading": 52,
      "size": 6,
      "version": 0,
      "texture": 1
    },
    {
      "class": 1,
      "race": 71,
      "hp": 130,
      "name": "Guard_Erabb",
      "respawnTime": 640,
      "x": 245,
      "y": 164,
      "z": 2.75,
      "gender": 0,
      "chance": 50,
      "level": 5,
      "id": 2120,
      "heading": 52,
      "size": 6,
      "version": 0,
      "texture": 1
    }
  ],
  [
    {
      "class": 1,
      "race": 36,
      "hp": 11,
      "name": "a_rodent",
      "respawnTime": 640,
      "x": 118.629997,
      "y": 177,
      "z": 0.3,
      "gender": 2,
      "chance": 100,
      "level": 1,
      "id": 2010,
      "heading": 1.5,
      "size": 2,
      "version": 0,
      "texture": 0
    },
    {
      "class": 1,
      "race": 36,
      "hp": 11,
      "name": "a_rodent",
      "respawnTime": 640,
      "x": 343,
      "y": 231.630005,
      "z": 1.3,
      "gender": 2,
      "chance": 100,
      "level": 1,
      "id": 2010,
      "heading": 115.25,
      "size": 2,
      "version": 0,
      "texture": 0
    },
    {
      "class": 1,
      "race": 36,
      "hp": 11,
      "name": "a_rodent",
      "respawnTime": 640,
      "x": 17.879999,
      "y": 328.5,
      "z": 0.3,
      "gender": 2,
      "chance": 100,
      "level": 1,
      "id": 2010,
      "heading": 130.5,
      "size": 2,
      "version": 0,
      "texture": 0
    },
    {
      "class": 1,
      "race": 36,
      "hp": 11,
      "name": "a_rodent",
      "respawnTime": 640,
      "x": -33.130001,
      "y": -120.629997,
      "z": 0.3,
      "gender": 2,
      "chance": 100,
      "level": 1,
      "id": 2010,
      "heading": 252.25,
      "size": 2,
      "version": 0,
      "texture": 0
    },
    {
      "class": 1,
      "race": 36,
      "hp": 11,
      "name": "a_rodent",
      "respawnTime": 640,
      "x": 91.5,
      "y": 244.880005,
      "z": 1.25,
      "gender": 2,
      "chance": 100,
      "level": 1,
      "id": 2010,
      "heading": 196.25,
      "size": 2,
      "version": 0,
      "texture": 0
    },
    {
      "class": 1,
      "race": 36,
      "hp": 11,
      "name": "a_rodent",
      "respawnTime": 640,
      "x": 160.75,
      "y": 148,
      "z": 1.25,
      "gender": 2,
      "chance": 100,
      "level": 1,
      "id": 2010,
      "heading": 87.75,
      "size": 2,
      "version": 0,
      "texture": 0
    },
    {
      "class": 1,
      "race": 36,
      "hp": 11,
      "name": "a_rodent",
      "respawnTime": 640,
      "x": 166.5,
      "y": 259,
      "z": 1.25,
      "gender": 2,
      "chance": 100,
      "level": 1,
      "id": 2010,
      "heading": 5.25,
      "size": 2,
      "version": 0,
      "texture": 0
    },
    {
      "class": 1,
      "race": 36,
      "hp": 11,
      "name": "a_rodent",
      "respawnTime": 640,
      "x": 300.130005,
      "y": 283.25,
      "z": 15.25,
      "gender": 2,
      "chance": 100,
      "level": 1,
      "id": 2010,
      "heading": 34,
      "size": 2,
      "version": 0,
      "texture": 0
    },
    {
      "class": 1,
      "race": 36,
      "hp": 11,
      "name": "a_rodent",
      "respawnTime": 640,
      "x": -132.880005,
      "y": -162.25,
      "z": 1.3,
      "gender": 2,
      "chance": 100,
      "level": 1,
      "id": 2010,
      "heading": 1.25,
      "size": 2,
      "version": 0,
      "texture": 0
    },
    {
      "class": 1,
      "race": 36,
      "hp": 11,
      "name": "a_rodent",
      "respawnTime": 640,
      "x": 384.380005,
      "y": 8.75,
      "z": 1.3,
      "gender": 2,
      "chance": 100,
      "level": 1,
      "id": 2010,
      "heading": 204,
      "size": 2,
      "version": 0,
      "texture": 0
    },
    {
      "class": 1,
      "race": 36,
      "hp": 11,
      "name": "a_rodent",
      "respawnTime": 640,
      "x": -458.5,
      "y": -173,
      "z": 31.25,
      "gender": 2,
      "chance": 100,
      "level": 1,
      "id": 2010,
      "heading": 225.125,
      "size": 2,
      "version": 0,
      "texture": 0
    },
    {
      "class": 1,
      "race": 36,
      "hp": 11,
      "name": "a_rodent",
      "respawnTime": 640,
      "x": 243.380005,
      "y": 89.879997,
      "z": 1.3,
      "gender": 2,
      "chance": 100,
      "level": 1,
      "id": 2010,
      "heading": 63.25,
      "size": 2,
      "version": 0,
      "texture": 0
    },
    {
      "class": 1,
      "race": 36,
      "hp": 11,
      "name": "a_rodent",
      "respawnTime": 640,
      "x": 398.75,
      "y": -21,
      "z": 0.25,
      "gender": 2,
      "chance": 100,
      "level": 1,
      "id": 2010,
      "heading": 128,
      "size": 2,
      "version": 0,
      "texture": 0
    },
    {
      "class": 1,
      "race": 36,
      "hp": 11,
      "name": "a_rodent",
      "respawnTime": 640,
      "x": 101.5,
      "y": 47.5,
      "z": -32.599998,
      "gender": 2,
      "chance": 100,
      "level": 1,
      "id": 2010,
      "heading": 0.75,
      "size": 2,
      "version": 0,
      "texture": 0
    },
    {
      "class": 1,
      "race": 36,
      "hp": 11,
      "name": "a_rodent",
      "respawnTime": 640,
      "x": 161.130005,
      "y": 272.75,
      "z": 45.130001,
      "gender": 2,
      "chance": 100,
      "level": 1,
      "id": 2010,
      "heading": 127.375,
      "size": 2,
      "version": 0,
      "texture": 0
    },
    {
      "class": 1,
      "race": 36,
      "hp": 11,
      "name": "a_rodent",
      "respawnTime": 640,
      "x": 49,
      "y": 294,
      "z": 47,
      "gender": 2,
      "chance": 100,
      "level": 1,
      "id": 2010,
      "heading": 0,
      "size": 2,
      "version": 0,
      "texture": 0
    },
    {
      "class": 1,
      "race": 36,
      "hp": 11,
      "name": "a_rodent",
      "respawnTime": 640,
      "x": -52,
      "y": 454,
      "z": 3,
      "gender": 2,
      "chance": 100,
      "level": 1,
      "id": 2010,
      "heading": 0,
      "size": 2,
      "version": 0,
      "texture": 0
    },
    {
      "class": 1,
      "race": 36,
      "hp": 11,
      "name": "a_rodent",
      "respawnTime": 640,
      "x": 286.380005,
      "y": 89.879997,
      "z": 1.3,
      "gender": 2,
      "chance": 100,
      "level": 1,
      "id": 2010,
      "heading": 127.75,
      "size": 2,
      "version": 0,
      "texture": 0
    },
    {
      "class": 1,
      "race": 36,
      "hp": 11,
      "name": "a_rodent",
      "respawnTime": 640,
      "x": 20.879999,
      "y": 108.879997,
      "z": 1.3,
      "gender": 2,
      "chance": 100,
      "level": 1,
      "id": 2010,
      "heading": 0,
      "size": 2,
      "version": 0,
      "texture": 0
    },
    {
      "class": 1,
      "race": 36,
      "hp": 11,
      "name": "a_rodent",
      "respawnTime": 640,
      "x": 128,
      "y": 292.380005,
      "z": 45.130001,
      "gender": 2,
      "chance": 100,
      "level": 1,
      "id": 2010,
      "heading": 254.125,
      "size": 2,
      "version": 0,
      "texture": 0
    }
  ],
  [
    {
      "class": 1,
      "race": 34,
      "hp": 39,
      "name": "a_whiskered_bat",
      "respawnTime": 640,
      "x": -295.880005,
      "y": 665,
      "z": 1.9,
      "gender": 2,
      "chance": 100,
      "level": 3,
      "id": 2019,
      "heading": 115.25,
      "size": 3,
      "version": 0,
      "texture": 0
    }
  ],
  [
    {
      "class": 1,
      "race": 22,
      "hp": 119,
      "name": "a_klicnik_noble",
      "respawnTime": 640,
      "x": 370.880005,
      "y": 774,
      "z": 1.9,
      "gender": 2,
      "chance": 100,
      "level": 7,
      "id": 2018,
      "heading": 180.75,
      "size": 3,
      "version": 0,
      "texture": 1
    }
  ],
  [
    {
      "class": 1,
      "race": 71,
      "hp": 346,
      "name": "Guard_Buce",
      "respawnTime": 640,
      "x": 303.880005,
      "y": 154.880005,
      "z": 2.8,
      "gender": 0,
      "chance": 50,
      "level": 10,
      "id": 2016,
      "heading": 0,
      "size": 6,
      "version": 0,
      "texture": 1
    },
    {
      "class": 1,
      "race": 71,
      "hp": 130,
      "name": "Guard_Imkar",
      "respawnTime": 640,
      "x": 303.880005,
      "y": 154.880005,
      "z": 2.8,
      "gender": 0,
      "chance": 50,
      "level": 5,
      "id": 2113,
      "heading": 0,
      "size": 6,
      "version": 0,
      "texture": 1
    }
  ],
  [
    {
      "class": 1,
      "race": 22,
      "hp": 75,
      "name": "a_klicnik_warrior",
      "respawnTime": 640,
      "x": 481.880005,
      "y": 1035.880005,
      "z": 1.88,
      "gender": 2,
      "chance": 100,
      "level": 5,
      "id": 2015,
      "heading": 61,
      "size": 3,
      "version": 0,
      "texture": 1
    }
  ],
  [
    {
      "class": 1,
      "race": 71,
      "hp": 648,
      "name": "Guard_Drath",
      "respawnTime": 640,
      "x": 165,
      "y": 309,
      "z": 47.630001,
      "gender": 0,
      "chance": 50,
      "level": 15,
      "id": 2013,
      "heading": 160,
      "size": 6,
      "version": 0,
      "texture": 1
    },
    {
      "class": 1,
      "race": 71,
      "hp": 346,
      "name": "Guard_Vaskif",
      "respawnTime": 640,
      "x": 165,
      "y": 309,
      "z": 47.630001,
      "gender": 0,
      "chance": 50,
      "level": 10,
      "id": 2115,
      "heading": 160,
      "size": 6,
      "version": 0,
      "texture": 1
    }
  ],
  [
    {
      "class": 1,
      "race": 71,
      "hp": 2722,
      "name": "Guard_Wefnin",
      "respawnTime": 640,
      "x": 37,
      "y": -83,
      "z": 3.75,
      "gender": 0,
      "chance": 50,
      "level": 35,
      "id": 2012,
      "heading": 163,
      "size": 6,
      "version": 0,
      "texture": 1
    },
    {
      "class": 1,
      "race": 71,
      "hp": 346,
      "name": "Guard_Deregan",
      "respawnTime": 640,
      "x": 37,
      "y": -83,
      "z": 3.75,
      "gender": 0,
      "chance": 50,
      "level": 10,
      "id": 2117,
      "heading": 163,
      "size": 6,
      "version": 0,
      "texture": 1
    }
  ],
  [
    {
      "class": 1,
      "race": 71,
      "hp": 346,
      "name": "Guard_Ginton",
      "respawnTime": 640,
      "x": -35.880001,
      "y": -127.879997,
      "z": 2.8,
      "gender": 0,
      "chance": 50,
      "level": 10,
      "id": 2009,
      "heading": 0,
      "size": 6,
      "version": 0,
      "texture": 1
    },
    {
      "class": 1,
      "race": 71,
      "hp": 130,
      "name": "Guard_Aerryn",
      "respawnTime": 640,
      "x": -35.880001,
      "y": -127.879997,
      "z": 2.8,
      "gender": 0,
      "chance": 50,
      "level": 5,
      "id": 2121,
      "heading": 0,
      "size": 6,
      "version": 0,
      "texture": 1
    }
  ],
  [
    {
      "class": 1,
      "race": 71,
      "hp": 346,
      "name": "Guard_Rashik",
      "respawnTime": 640,
      "x": 136.880005,
      "y": 216.880005,
      "z": 3.75,
      "gender": 0,
      "chance": 50,
      "level": 10,
      "id": 2008,
      "heading": 0,
      "size": 6,
      "version": 0,
      "texture": 1
    },
    {
      "class": 1,
      "race": 71,
      "hp": 346,
      "name": "Guard_Shorm",
      "respawnTime": 640,
      "x": 136.880005,
      "y": 216.880005,
      "z": 3.75,
      "gender": 0,
      "chance": 50,
      "level": 10,
      "id": 2112,
      "heading": 0,
      "size": 6,
      "version": 0,
      "texture": 1
    }
  ],
  [
    {
      "class": 1,
      "race": 71,
      "hp": 346,
      "name": "Guard_Hewet",
      "respawnTime": 640,
      "x": 199.880005,
      "y": 363.880005,
      "z": 2.8,
      "gender": 0,
      "chance": 50,
      "level": 10,
      "id": 2007,
      "heading": 0,
      "size": 6,
      "version": 0,
      "texture": 1
    },
    {
      "class": 1,
      "race": 71,
      "hp": 130,
      "name": "Guard_Liben",
      "respawnTime": 640,
      "x": 199.880005,
      "y": 363.880005,
      "z": 2.8,
      "gender": 0,
      "chance": 50,
      "level": 5,
      "id": 2122,
      "heading": 0,
      "size": 6,
      "version": 0,
      "texture": 1
    }
  ],
  [
    {
      "class": 20,
      "race": 1,
      "hp": 20000,
      "name": "Kane_Bayle",
      "respawnTime": 640,
      "x": 202,
      "y": 270,
      "z": 3.75,
      "gender": 0,
      "chance": 50,
      "level": 61,
      "id": 2006,
      "heading": 177,
      "size": 6,
      "version": 0,
      "texture": 3
    },
    {
      "class": 20,
      "race": 71,
      "hp": 2722,
      "name": "Guard_Treitan",
      "respawnTime": 640,
      "x": 202,
      "y": 270,
      "z": 3.75,
      "gender": 0,
      "chance": 50,
      "level": 35,
      "id": 2110,
      "heading": 177,
      "size": 6,
      "version": 0,
      "texture": 1
    }
  ],
  [
    {
      "class": 1,
      "race": 24,
      "hp": 11,
      "name": "a_Koalindl",
      "respawnTime": 640,
      "x": -391.630005,
      "y": -113.129997,
      "z": -10,
      "gender": 2,
      "chance": 95,
      "level": 1,
      "id": 2005,
      "heading": 62.625,
      "size": 6,
      "version": 0,
      "texture": 3
    },
    {
      "class": 1,
      "race": 24,
      "hp": 13750,
      "name": "Koalindl",
      "respawnTime": 640,
      "x": -391.630005,
      "y": -113.129997,
      "z": -10,
      "gender": 2,
      "chance": 5,
      "level": 55,
      "id": 2151,
      "heading": 62.625,
      "size": 6,
      "version": 0,
      "texture": 3
    },
    {
      "class": 1,
      "race": 24,
      "hp": 11,
      "name": "a_Koalindl",
      "respawnTime": 640,
      "x": -454,
      "y": -54.380001,
      "z": -5,
      "gender": 2,
      "chance": 95,
      "level": 1,
      "id": 2005,
      "heading": 64.625,
      "size": 6,
      "version": 0,
      "texture": 3
    },
    {
      "class": 1,
      "race": 24,
      "hp": 13750,
      "name": "Koalindl",
      "respawnTime": 640,
      "x": -454,
      "y": -54.380001,
      "z": -5,
      "gender": 2,
      "chance": 5,
      "level": 55,
      "id": 2151,
      "heading": 64.625,
      "size": 6,
      "version": 0,
      "texture": 3
    }
  ],
  [
    {
      "class": 41,
      "race": 71,
      "hp": 875,
      "name": "Tyokan_Mekase",
      "respawnTime": 640,
      "x": -146,
      "y": -161,
      "z": 3.75,
      "gender": 0,
      "chance": 50,
      "level": 25,
      "id": 2004,
      "heading": 176,
      "size": 6,
      "version": 0,
      "texture": 0
    },
    {
      "class": 41,
      "race": 71,
      "hp": 875,
      "name": "Whysia_Flock",
      "respawnTime": 640,
      "x": -146,
      "y": -161,
      "z": 3.75,
      "gender": 1,
      "chance": 50,
      "level": 25,
      "id": 2111,
      "heading": 176,
      "size": 6,
      "version": 0,
      "texture": 5
    }
  ],
  [
    {
      "class": 21,
      "race": 1,
      "hp": 20000,
      "name": "Priestess_Jahnda",
      "respawnTime": 640,
      "x": -678,
      "y": -59,
      "z": -10.13,
      "gender": 1,
      "chance": 100,
      "level": 61,
      "id": 2078,
      "heading": 126.5,
      "size": 6,
      "version": 0,
      "texture": 2
    }
  ],
  [
    {
      "class": 1,
      "race": 71,
      "hp": 517,
      "name": "Guard_Weleth",
      "respawnTime": 640,
      "x": 206.880005,
      "y": 217,
      "z": 3.75,
      "gender": 0,
      "chance": 100,
      "level": 13,
      "id": 2079,
      "heading": 132.5,
      "size": 6,
      "version": 0,
      "texture": 1
    }
  ],
  [
    {
      "class": 1,
      "race": 71,
      "hp": 2722,
      "name": "Guard_Elron",
      "respawnTime": 640,
      "x": 56,
      "y": 290,
      "z": 47.630001,
      "gender": 0,
      "chance": 100,
      "level": 35,
      "id": 2080,
      "heading": 49,
      "size": 6,
      "version": 0,
      "texture": 1
    }
  ],
  [
    {
      "class": 1,
      "race": 1,
      "hp": 1575,
      "name": "Segran_Rajhar",
      "respawnTime": 640,
      "x": 314,
      "y": 118,
      "z": 3.75,
      "gender": 0,
      "chance": 100,
      "level": 35,
      "id": 2081,
      "heading": 67.5,
      "size": 6,
      "version": 0,
      "texture": 1
    }
  ],
  [
    {
      "class": 41,
      "race": 71,
      "hp": 2475,
      "name": "Ania_Klephia",
      "respawnTime": 640,
      "x": 359,
      "y": 115,
      "z": 3.75,
      "gender": 1,
      "chance": 100,
      "level": 45,
      "id": 2082,
      "heading": 103,
      "size": 6,
      "version": 0,
      "texture": 1
    }
  ],
  [
    {
      "class": 41,
      "race": 71,
      "hp": 200,
      "name": "Sabnie_Blagard",
      "respawnTime": 640,
      "x": 368,
      "y": 81.879997,
      "z": 3.75,
      "gender": 1,
      "chance": 100,
      "level": 10,
      "id": 2083,
      "heading": 161,
      "size": 6,
      "version": 0,
      "texture": 1
    }
  ],
  [
    {
      "class": 41,
      "race": 71,
      "hp": 1739,
      "name": "Ghil_Starn",
      "respawnTime": 640,
      "x": 195.880005,
      "y": 157,
      "z": -29.129999,
      "gender": 0,
      "chance": 100,
      "level": 37,
      "id": 2084,
      "heading": 0,
      "size": 6,
      "version": 0,
      "texture": 0
    }
  ],
  [
    {
      "class": 28,
      "race": 1,
      "hp": 20000,
      "name": "Zannsin_Resdinet",
      "respawnTime": 640,
      "x": 163,
      "y": 144,
      "z": -29.129999,
      "gender": 0,
      "chance": 100,
      "level": 61,
      "id": 2085,
      "heading": 82.75,
      "size": 6,
      "version": 0,
      "texture": 1
    }
  ],
  [
    {
      "class": 26,
      "race": 1,
      "hp": 20000,
      "name": "Seta_Bakindo",
      "respawnTime": 640,
      "x": 313,
      "y": 257,
      "z": 17.75,
      "gender": 1,
      "chance": 100,
      "level": 61,
      "id": 2086,
      "heading": 11,
      "size": 6,
      "version": 0,
      "texture": 0
    }
  ],
  [
    {
      "class": 26,
      "race": 1,
      "hp": 20000,
      "name": "Togahn_Sorast",
      "respawnTime": 640,
      "x": 392.880005,
      "y": 289.880005,
      "z": 3.75,
      "gender": 0,
      "chance": 100,
      "level": 61,
      "id": 2087,
      "heading": 191,
      "size": 6,
      "version": 0,
      "texture": 0
    }
  ],
  [
    {
      "class": 21,
      "race": 1,
      "hp": 20000,
      "name": "Nomsoe_Jusagta",
      "respawnTime": 640,
      "x": -261,
      "y": -232.880005,
      "z": 3.75,
      "gender": 0,
      "chance": 100,
      "level": 61,
      "id": 2088,
      "heading": 4,
      "size": 6,
      "version": 0,
      "texture": 1
    }
  ],
  [
    {
      "class": 21,
      "race": 1,
      "hp": 20000,
      "name": "Tonmerk_Plorsin",
      "respawnTime": 640,
      "x": -693,
      "y": -156,
      "z": -11.13,
      "gender": 0,
      "chance": 100,
      "level": 61,
      "id": 2089,
      "heading": 219.5,
      "size": 6,
      "version": 0,
      "texture": 1
    }
  ],
  [
    {
      "class": 21,
      "race": 1,
      "hp": 20000,
      "name": "Priestess_Caulria",
      "respawnTime": 640,
      "x": -604,
      "y": -133,
      "z": -10.13,
      "gender": 1,
      "chance": 100,
      "level": 61,
      "id": 2090,
      "heading": 193.5,
      "size": 6,
      "version": 0,
      "texture": 1
    }
  ],
  [
    {
      "class": 9,
      "race": 11,
      "hp": 375,
      "name": "Flynn_Merrington",
      "respawnTime": 640,
      "x": 332.880005,
      "y": 39,
      "z": 2.13,
      "gender": 0,
      "chance": 100,
      "level": 15,
      "id": 2091,
      "heading": 15.5,
      "size": 3.5,
      "version": 0,
      "texture": 1
    }
  ],
  [
    {
      "class": 22,
      "race": 1,
      "hp": 20000,
      "name": "Camlend_Serbold",
      "respawnTime": 640,
      "x": -676.880005,
      "y": -205.880005,
      "z": -10.13,
      "gender": 0,
      "chance": 100,
      "level": 61,
      "id": 2092,
      "heading": 250,
      "size": 6,
      "version": 0,
      "texture": 3
    }
  ],
  [
    {
      "class": 1,
      "race": 71,
      "hp": 87696,
      "name": "Guard_Gehnus",
      "respawnTime": 640,
      "x": 130,
      "y": 312,
      "z": 3.1,
      "gender": 0,
      "chance": 100,
      "level": 50,
      "id": 2093,
      "heading": 0,
      "size": 6,
      "version": 0,
      "texture": 1
    }
  ],
  [
    {
      "class": 1,
      "race": 71,
      "hp": 87696,
      "name": "Guard_Hezlan",
      "respawnTime": 640,
      "x": 101,
      "y": 310,
      "z": 3.75,
      "gender": 0,
      "chance": 100,
      "level": 50,
      "id": 2094,
      "heading": 0,
      "size": 6,
      "version": 0,
      "texture": 1
    }
  ],
  [
    {
      "class": 1,
      "race": 71,
      "hp": 2184,
      "name": "Dranom_Ghenson",
      "respawnTime": 640,
      "x": -74,
      "y": -88,
      "z": 3.75,
      "gender": 0,
      "chance": 100,
      "level": 42,
      "id": 2095,
      "heading": 15.5,
      "size": 6,
      "version": 0,
      "texture": 2
    }
  ],
  [
    {
      "class": 9,
      "race": 1,
      "hp": 299,
      "name": "Aenia_Ghenson",
      "respawnTime": 640,
      "x": -68,
      "y": -89,
      "z": 3.75,
      "gender": 1,
      "chance": 100,
      "level": 13,
      "id": 2096,
      "heading": 234.5,
      "size": 6,
      "version": 0,
      "texture": 0
    }
  ],
  [
    {
      "class": 3,
      "race": 71,
      "hp": 8750,
      "name": "Corporal_Lancot",
      "respawnTime": 640,
      "x": -503,
      "y": -236,
      "z": 4.4,
      "gender": 0,
      "chance": 100,
      "level": 50,
      "id": 2097,
      "heading": 0,
      "size": 7,
      "version": 0,
      "texture": 1
    }
  ],
  [
    {
      "class": 41,
      "race": 1,
      "hp": 2475,
      "name": "Connie_Link",
      "respawnTime": 640,
      "x": 23.879999,
      "y": -23.129999,
      "z": 3.75,
      "gender": 1,
      "chance": 100,
      "level": 45,
      "id": 2098,
      "heading": 232.5,
      "size": 6,
      "version": 0,
      "texture": 15
    }
  ],
  [
    {
      "class": 1,
      "race": 1,
      "hp": 1200,
      "name": "Exterminator_Wintloag",
      "respawnTime": 640,
      "x": 135,
      "y": 202,
      "z": 3.75,
      "gender": 0,
      "chance": 100,
      "level": 30,
      "id": 2099,
      "heading": 217,
      "size": 6,
      "version": 0,
      "texture": 1
    }
  ],
  [
    {
      "class": 22,
      "race": 1,
      "hp": 20000,
      "name": "Astaed_Wemor",
      "respawnTime": 640,
      "x": -470.880005,
      "y": -175,
      "z": 33.75,
      "gender": 0,
      "chance": 100,
      "level": 61,
      "id": 2100,
      "heading": 61,
      "size": 6,
      "version": 0,
      "texture": 2
    }
  ],
  [
    {
      "class": 1,
      "race": 367,
      "hp": 24,
      "name": "a_decaying_skeleton",
      "respawnTime": 640,
      "x": -840,
      "y": 1139,
      "z": 9,
      "gender": 2,
      "chance": 100,
      "level": 2,
      "id": 2000,
      "heading": 0,
      "size": 6,
      "version": 0,
      "texture": 0
    },
    {
      "class": 1,
      "race": 367,
      "hp": 24,
      "name": "a_decaying_skeleton",
      "respawnTime": 640,
      "x": 10,
      "y": 939,
      "z": 3.75,
      "gender": 2,
      "chance": 100,
      "level": 2,
      "id": 2000,
      "heading": 0,
      "size": 6,
      "version": 0,
      "texture": 0
    },
    {
      "class": 1,
      "race": 367,
      "hp": 24,
      "name": "a_decaying_skeleton",
      "respawnTime": 640,
      "x": -423,
      "y": 1086,
      "z": 9,
      "gender": 2,
      "chance": 100,
      "level": 2,
      "id": 2000,
      "heading": 0,
      "size": 6,
      "version": 0,
      "texture": 0
    },
    {
      "class": 1,
      "race": 367,
      "hp": 24,
      "name": "a_decaying_skeleton",
      "respawnTime": 640,
      "x": 377,
      "y": 879,
      "z": 9,
      "gender": 2,
      "chance": 100,
      "level": 2,
      "id": 2000,
      "heading": 0,
      "size": 6,
      "version": 0,
      "texture": 0
    },
    {
      "class": 1,
      "race": 367,
      "hp": 24,
      "name": "a_decaying_skeleton",
      "respawnTime": 640,
      "x": 596,
      "y": 877,
      "z": 9,
      "gender": 2,
      "chance": 100,
      "level": 2,
      "id": 2000,
      "heading": 0,
      "size": 6,
      "version": 0,
      "texture": 0
    },
    {
      "class": 1,
      "race": 367,
      "hp": 24,
      "name": "a_decaying_skeleton",
      "respawnTime": 640,
      "x": 686,
      "y": 460,
      "z": 9,
      "gender": 2,
      "chance": 100,
      "level": 2,
      "id": 2000,
      "heading": 0,
      "size": 6,
      "version": 0,
      "texture": 0
    },
    {
      "class": 1,
      "race": 367,
      "hp": 24,
      "name": "a_decaying_skeleton",
      "respawnTime": 640,
      "x": 730,
      "y": 1104,
      "z": 9,
      "gender": 2,
      "chance": 100,
      "level": 2,
      "id": 2000,
      "heading": 0,
      "size": 6,
      "version": 0,
      "texture": 0
    },
    {
      "class": 1,
      "race": 367,
      "hp": 24,
      "name": "a_decaying_skeleton",
      "respawnTime": 640,
      "x": -191,
      "y": 1125,
      "z": 9,
      "gender": 2,
      "chance": 100,
      "level": 2,
      "id": 2000,
      "heading": 0,
      "size": 6,
      "version": 0,
      "texture": 0
    },
    {
      "class": 1,
      "race": 367,
      "hp": 24,
      "name": "a_decaying_skeleton",
      "respawnTime": 640,
      "x": -268,
      "y": 616,
      "z": 9,
      "gender": 2,
      "chance": 100,
      "level": 2,
      "id": 2000,
      "heading": 0,
      "size": 6,
      "version": 0,
      "texture": 0
    }
  ],
  [
    {
      "class": 1,
      "race": 37,
      "hp": 11,
      "name": "a_gopher_snake",
      "respawnTime": 640,
      "x": 1085,
      "y": 1097,
      "z": 9,
      "gender": 2,
      "chance": 100,
      "level": 1,
      "id": 2101,
      "heading": 0,
      "size": 3,
      "version": 0,
      "texture": 0
    },
    {
      "class": 1,
      "race": 37,
      "hp": 11,
      "name": "a_gopher_snake",
      "respawnTime": 640,
      "x": 495,
      "y": 1225,
      "z": 9,
      "gender": 2,
      "chance": 100,
      "level": 1,
      "id": 2101,
      "heading": 0,
      "size": 3,
      "version": 0,
      "texture": 0
    }
  ],
  [
    {
      "class": 1,
      "race": 39,
      "hp": 119,
      "name": "Kraxz_Darkpaw",
      "respawnTime": 640,
      "x": -352,
      "y": 1156,
      "z": 5,
      "gender": 2,
      "chance": 20,
      "level": 7,
      "id": 2102,
      "heading": 120,
      "size": 6,
      "version": 0,
      "texture": 2
    },
    {
      "class": 1,
      "race": 39,
      "hp": 56,
      "name": "Djerr_Darkpaw",
      "respawnTime": 640,
      "x": -352,
      "y": 1156,
      "z": 5,
      "gender": 2,
      "chance": 20,
      "level": 4,
      "id": 2107,
      "heading": 120,
      "size": 6,
      "version": 0,
      "texture": 2
    },
    {
      "class": 1,
      "race": 367,
      "hp": 56,
      "name": "a_skeleton",
      "respawnTime": 640,
      "x": -352,
      "y": 1156,
      "z": 5,
      "gender": 2,
      "chance": 20,
      "level": 4,
      "id": 2118,
      "heading": 120,
      "size": 6,
      "version": 0,
      "texture": 0
    },
    {
      "class": 1,
      "race": 39,
      "hp": 39,
      "name": "Djerr_Darkpaw",
      "respawnTime": 640,
      "x": -352,
      "y": 1156,
      "z": 5,
      "gender": 2,
      "chance": 20,
      "level": 3,
      "id": 2124,
      "heading": 120,
      "size": 6,
      "version": 0,
      "texture": 2
    },
    {
      "class": 10,
      "race": 39,
      "hp": 200,
      "name": "Holinix_Darkpaw",
      "respawnTime": 640,
      "x": -352,
      "y": 1156,
      "z": 5,
      "gender": 2,
      "chance": 20,
      "level": 10,
      "id": 2146,
      "heading": 120,
      "size": -1,
      "version": 0,
      "texture": 2
    }
  ],
  [
    {
      "class": 1,
      "race": 36,
      "hp": 11,
      "name": "a_large_rat",
      "respawnTime": 640,
      "x": 96,
      "y": 890,
      "z": 9,
      "gender": 2,
      "chance": 100,
      "level": 1,
      "id": 2011,
      "heading": 0,
      "size": 7,
      "version": 0,
      "texture": 0
    },
    {
      "class": 1,
      "race": 36,
      "hp": 11,
      "name": "a_large_rat",
      "respawnTime": 640,
      "x": -935,
      "y": 1194,
      "z": 9,
      "gender": 2,
      "chance": 100,
      "level": 1,
      "id": 2011,
      "heading": 0,
      "size": 7,
      "version": 0,
      "texture": 0
    },
    {
      "class": 1,
      "race": 36,
      "hp": 11,
      "name": "a_large_rat",
      "respawnTime": 640,
      "x": 383,
      "y": 988,
      "z": 9,
      "gender": 2,
      "chance": 100,
      "level": 1,
      "id": 2011,
      "heading": 0,
      "size": 7,
      "version": 0,
      "texture": 0
    },
    {
      "class": 1,
      "race": 36,
      "hp": 11,
      "name": "a_large_rat",
      "respawnTime": 640,
      "x": -928,
      "y": 1279,
      "z": 9,
      "gender": 2,
      "chance": 100,
      "level": 1,
      "id": 2011,
      "heading": 0,
      "size": 7,
      "version": 0,
      "texture": 0
    }
  ],
  [
    {
      "class": 1,
      "race": 39,
      "hp": 11,
      "name": "a_gnoll_pup",
      "respawnTime": 640,
      "x": 923,
      "y": 1255,
      "z": 9,
      "gender": 2,
      "chance": 100,
      "level": 1,
      "id": 2002,
      "heading": 0,
      "size": 4.5,
      "version": 0,
      "texture": 2
    },
    {
      "class": 1,
      "race": 39,
      "hp": 11,
      "name": "a_gnoll_pup",
      "respawnTime": 640,
      "x": -260,
      "y": 1178,
      "z": 9,
      "gender": 2,
      "chance": 100,
      "level": 1,
      "id": 2002,
      "heading": 0,
      "size": 4.5,
      "version": 0,
      "texture": 2
    }
  ],
  [
    {
      "class": 1,
      "race": 22,
      "hp": 24,
      "name": "Prince_Klicnik",
      "respawnTime": 640,
      "x": -1085,
      "y": 918,
      "z": 9,
      "gender": 2,
      "chance": 33,
      "level": 2,
      "id": 2026,
      "heading": 0,
      "size": 3,
      "version": 0,
      "texture": 1
    },
    {
      "class": 1,
      "race": 22,
      "hp": 24,
      "name": "Princess_Klicnik",
      "respawnTime": 640,
      "x": -1085,
      "y": 918,
      "z": 9,
      "gender": 2,
      "chance": 33,
      "level": 2,
      "id": 2105,
      "heading": 0,
      "size": 3,
      "version": 0,
      "texture": 1
    },
    {
      "class": 1,
      "race": 22,
      "hp": 200,
      "name": "Queen_Klicnik",
      "respawnTime": 640,
      "x": -1085,
      "y": 918,
      "z": 9,
      "gender": 2,
      "chance": 34,
      "level": 10,
      "id": 2108,
      "heading": 0,
      "size": 5,
      "version": 0,
      "texture": 1
    }
  ],
  [
    {
      "class": 1,
      "race": 367,
      "hp": 11,
      "name": "a_decaying_skeleton",
      "respawnTime": 640,
      "x": -956,
      "y": 1122,
      "z": 9,
      "gender": 2,
      "chance": 100,
      "level": 1,
      "id": 2104,
      "heading": 0,
      "size": 6,
      "version": 0,
      "texture": 0
    },
    {
      "class": 1,
      "race": 367,
      "hp": 11,
      "name": "a_decaying_skeleton",
      "respawnTime": 640,
      "x": 707,
      "y": 1309,
      "z": 9,
      "gender": 2,
      "chance": 100,
      "level": 1,
      "id": 2104,
      "heading": 0,
      "size": 6,
      "version": 0,
      "texture": 0
    },
    {
      "class": 1,
      "race": 367,
      "hp": 11,
      "name": "a_decaying_skeleton",
      "respawnTime": 640,
      "x": -492,
      "y": 1294,
      "z": 9,
      "gender": 2,
      "chance": 100,
      "level": 1,
      "id": 2104,
      "heading": 0,
      "size": 6,
      "version": 0,
      "texture": 0
    },
    {
      "class": 1,
      "race": 367,
      "hp": 11,
      "name": "a_decaying_skeleton",
      "respawnTime": 640,
      "x": -798,
      "y": 1182,
      "z": 9,
      "gender": 2,
      "chance": 100,
      "level": 1,
      "id": 2104,
      "heading": 0,
      "size": 6,
      "version": 0,
      "texture": 0
    }
  ],
  [
    {
      "class": 1,
      "race": 71,
      "hp": 250,
      "name": "Guard_Obyn",
      "respawnTime": 640,
      "x": 65,
      "y": 250.880005,
      "z": 3.75,
      "gender": 0,
      "chance": 50,
      "level": 8,
      "id": 2106,
      "heading": 76,
      "size": 6,
      "version": 0,
      "texture": 1
    },
    {
      "class": 1,
      "race": 71,
      "hp": 250,
      "name": "Guard_Furithane",
      "respawnTime": 640,
      "x": 65,
      "y": 250.880005,
      "z": 3.75,
      "gender": 0,
      "chance": 50,
      "level": 8,
      "id": 2116,
      "heading": 76,
      "size": 6,
      "version": 0,
      "texture": 1
    }
  ],
  [
    {
      "class": 1,
      "race": 39,
      "hp": 39,
      "name": "Fippy_Darkpaw",
      "respawnTime": 640,
      "x": 481.200012,
      "y": 1210.800049,
      "z": 3.1,
      "gender": 2,
      "chance": 27,
      "level": 3,
      "id": 2001,
      "heading": 194.100006,
      "size": 6,
      "version": 0,
      "texture": 2
    },
    {
      "class": 1,
      "race": 39,
      "hp": 200,
      "name": "Grarrax_Darkpaw",
      "respawnTime": 640,
      "x": 481.200012,
      "y": 1210.800049,
      "z": 3.1,
      "gender": 2,
      "chance": 5,
      "level": 10,
      "id": 2103,
      "heading": 194.100006,
      "size": 7,
      "version": 0,
      "texture": 2
    },
    {
      "class": 1,
      "race": 39,
      "hp": 56,
      "name": "Fippy_Darkpaw",
      "respawnTime": 640,
      "x": 481.200012,
      "y": 1210.800049,
      "z": 3.1,
      "gender": 2,
      "chance": 27,
      "level": 4,
      "id": 2109,
      "heading": 194.100006,
      "size": 6,
      "version": 0,
      "texture": 2
    },
    {
      "class": 1,
      "race": 39,
      "hp": 75,
      "name": "Fippy_Darkpaw",
      "respawnTime": 640,
      "x": 481.200012,
      "y": 1210.800049,
      "z": 3.1,
      "gender": 2,
      "chance": 26,
      "level": 5,
      "id": 2119,
      "heading": 194.100006,
      "size": 6,
      "version": 0,
      "texture": 2
    },
    {
      "class": 1,
      "race": 39,
      "hp": 96,
      "name": "Nixx_Darkpaw",
      "respawnTime": 640,
      "x": 481.200012,
      "y": 1210.800049,
      "z": 3.1,
      "gender": 2,
      "chance": 10,
      "level": 6,
      "id": 2127,
      "heading": 194.100006,
      "size": 6,
      "version": 0,
      "texture": 2
    },
    {
      "class": 1,
      "race": 39,
      "hp": 90,
      "name": "The_Fabled_Fippy_Darkpaw",
      "respawnTime": 640,
      "x": 481.200012,
      "y": 1210.800049,
      "z": 3.1,
      "gender": 2,
      "chance": 5,
      "level": 4,
      "id": 2148,
      "heading": 194.100006,
      "size": 6,
      "version": 0,
      "texture": 2
    }
  ],
  [
    {
      "class": 1,
      "race": 71,
      "hp": 130,
      "name": "Guard_Simkin",
      "respawnTime": 640,
      "x": 377,
      "y": 233,
      "z": 4,
      "gender": 0,
      "chance": 100,
      "level": 5,
      "id": 2114,
      "heading": 0,
      "size": 6,
      "version": 0,
      "texture": 1
    }
  ],
  [
    {
      "class": 1,
      "race": 240,
      "hp": 8750,
      "name": "a_flower",
      "respawnTime": 640,
      "x": 470,
      "y": 210,
      "z": 3.75,
      "gender": 2,
      "chance": 11,
      "level": 50,
      "id": 2131,
      "heading": 0,
      "size": 6,
      "version": 0,
      "texture": 0
    },
    {
      "class": 1,
      "race": 240,
      "hp": 8750,
      "name": "#CheckOne",
      "respawnTime": 640,
      "x": 470,
      "y": 210,
      "z": 3.75,
      "gender": 2,
      "chance": 11,
      "level": 50,
      "id": 2133,
      "heading": 0,
      "size": -1,
      "version": 0,
      "texture": 0
    },
    {
      "class": 1,
      "race": 240,
      "hp": 8750,
      "name": "a_pebble",
      "respawnTime": 640,
      "x": 470,
      "y": 210,
      "z": 3.75,
      "gender": 2,
      "chance": 11,
      "level": 50,
      "id": 2136,
      "heading": 0,
      "size": 6,
      "version": 0,
      "texture": 0
    },
    {
      "class": 1,
      "race": 240,
      "hp": 8750,
      "name": "gnoll_dung",
      "respawnTime": 640,
      "x": 470,
      "y": 210,
      "z": 3.75,
      "gender": 2,
      "chance": 11,
      "level": 50,
      "id": 2138,
      "heading": 0,
      "size": 6,
      "version": 0,
      "texture": 0
    },
    {
      "class": 1,
      "race": 240,
      "hp": 8750,
      "name": "#broken_hourglass",
      "respawnTime": 640,
      "x": 470,
      "y": 210,
      "z": 3.75,
      "gender": 2,
      "chance": 11,
      "level": 50,
      "id": 2139,
      "heading": 0,
      "size": -1,
      "version": 0,
      "texture": 0
    },
    {
      "class": 1,
      "race": 240,
      "hp": 8750,
      "name": "#CheckThree",
      "respawnTime": 640,
      "x": 470,
      "y": 210,
      "z": 3.75,
      "gender": 2,
      "chance": 11,
      "level": 50,
      "id": 2141,
      "heading": 0,
      "size": -1,
      "version": 0,
      "texture": 0
    },
    {
      "class": 1,
      "race": 240,
      "hp": 8750,
      "name": "Puzzle_Trigger",
      "respawnTime": 640,
      "x": 470,
      "y": 210,
      "z": 3.75,
      "gender": 2,
      "chance": 11,
      "level": 50,
      "id": 2142,
      "heading": 0,
      "size": 6,
      "version": 0,
      "texture": 0
    },
    {
      "class": 1,
      "race": 240,
      "hp": 8750,
      "name": "#CheckTwo",
      "respawnTime": 640,
      "x": 470,
      "y": 210,
      "z": 3.75,
      "gender": 2,
      "chance": 11,
      "level": 50,
      "id": 2144,
      "heading": 0,
      "size": -1,
      "version": 0,
      "texture": 0
    },
    {
      "class": 1,
      "race": 240,
      "hp": 8750,
      "name": "Marker",
      "respawnTime": 640,
      "x": 470,
      "y": 210,
      "z": 3.75,
      "gender": 2,
      "chance": 12,
      "level": 50,
      "id": 2147,
      "heading": 0,
      "size": 6,
      "version": 0,
      "texture": 0
    }
  ],
  [
    {
      "class": 9,
      "race": 7,
      "hp": 504,
      "name": "Faldor_Hendrys",
      "respawnTime": 8000,
      "x": -133.869904,
      "y": -84.054192,
      "z": 3.127001,
      "gender": 0,
      "chance": 100,
      "level": 18,
      "id": 2140,
      "heading": 254.625,
      "size": -1,
      "version": 0,
      "texture": 0
    }
  ],
  [
    {
      "class": 1,
      "race": 36,
      "hp": 11,
      "name": "a_large_rat",
      "respawnTime": 1200,
      "x": 270.200012,
      "y": 115,
      "z": 18.4,
      "gender": 2,
      "chance": 90,
      "level": 1,
      "id": 2011,
      "heading": 192.199997,
      "size": 7,
      "version": 0,
      "texture": 0
    },
    {
      "class": 1,
      "race": 36,
      "hp": 11,
      "name": "a_mangy_rat",
      "respawnTime": 1200,
      "x": 270.200012,
      "y": 115,
      "z": 18.4,
      "gender": 2,
      "chance": 10,
      "level": 1,
      "id": 2149,
      "heading": 192.199997,
      "size": 7,
      "version": 0,
      "texture": 0
    },
    {
      "class": 1,
      "race": 36,
      "hp": 11,
      "name": "a_large_rat",
      "respawnTime": 1200,
      "x": 199.600006,
      "y": 94,
      "z": 18.4,
      "gender": 2,
      "chance": 90,
      "level": 1,
      "id": 2011,
      "heading": 15,
      "size": 7,
      "version": 0,
      "texture": 0
    },
    {
      "class": 1,
      "race": 36,
      "hp": 11,
      "name": "a_mangy_rat",
      "respawnTime": 1200,
      "x": 199.600006,
      "y": 94,
      "z": 18.4,
      "gender": 2,
      "chance": 10,
      "level": 1,
      "id": 2149,
      "heading": 15,
      "size": 7,
      "version": 0,
      "texture": 0
    },
    {
      "class": 1,
      "race": 36,
      "hp": 11,
      "name": "a_large_rat",
      "respawnTime": 1200,
      "x": 189.399994,
      "y": 106.400002,
      "z": 18.4,
      "gender": 2,
      "chance": 90,
      "level": 1,
      "id": 2011,
      "heading": 59,
      "size": 7,
      "version": 0,
      "texture": 0
    },
    {
      "class": 1,
      "race": 36,
      "hp": 11,
      "name": "a_mangy_rat",
      "respawnTime": 1200,
      "x": 189.399994,
      "y": 106.400002,
      "z": 18.4,
      "gender": 2,
      "chance": 10,
      "level": 1,
      "id": 2149,
      "heading": 59,
      "size": 7,
      "version": 0,
      "texture": 0
    }
  ],
  [
    {
      "class": 1,
      "race": 1,
      "hp": 28500,
      "name": "Drun_Vorwig",
      "respawnTime": 1200,
      "x": 90,
      "y": 280,
      "z": 4.1,
      "gender": 0,
      "chance": 100,
      "level": 50,
      "id": 2150,
      "heading": 62.299999,
      "size": 6,
      "version": 0,
      "texture": 2
    }
  ],
  [
    {
      "class": 1,
      "race": 433,
      "hp": 11,
      "name": "a_Frostfell_Goblin",
      "respawnTime": 1200,
      "x": 60,
      "y": 374,
      "z": 1,
      "gender": 2,
      "chance": 100,
      "level": 1,
      "id": 2153,
      "heading": 30,
      "size": 3,
      "version": 0,
      "texture": 0
    }
  ],
  [
    {
      "class": 1,
      "race": 8,
      "hp": 11,
      "name": "Hargar_the_Velium_Chef",
      "respawnTime": 1200,
      "x": 72,
      "y": 313,
      "z": 2.5,
      "gender": 0,
      "chance": 100,
      "level": 1,
      "id": 2154,
      "heading": 1.5,
      "size": 4,
      "version": 0,
      "texture": 1
    }
  ],
  [
    {
      "class": 1,
      "race": 12,
      "hp": 11,
      "name": "Fireworks_Engineer_Fabdabus",
      "respawnTime": 1200,
      "x": 37,
      "y": 313,
      "z": 1.875,
      "gender": 0,
      "chance": 100,
      "level": 1,
      "id": 2155,
      "heading": 13,
      "size": 3,
      "version": 0,
      "texture": 0
    }
  ],
  [
    {
      "class": 1,
      "race": 10,
      "hp": 5600,
      "name": "Santug_Claugg",
      "respawnTime": 1200,
      "x": 65,
      "y": 342,
      "z": 5,
      "gender": 0,
      "chance": 100,
      "level": 70,
      "id": 2152,
      "heading": 58,
      "size": 9,
      "version": 0,
      "texture": 3
    }
  ]
]
